{
    "tasks": [
        {
            "id": "bf535c32-18ad-44d3-9e28-3ffe99ca252e",
            "service": "nmaps",
            "service_object_id": "1561531504",
            "service_object_url": "https://n.maps.yandex.ru/#!/objects/1561531504",
            "status": "rejected",
            "original_task": {
                "form_id": "toponym",
                "message": "Анар во",
                "form_context": {
                    "assignment_id": "fb:assignment1",
                    "search_text": "User search request"
                },
                "metadata": {
                    "uid": 515057235,
                    "uuid": "86c0fb0c-03cd-468b-b1b1-6eb4a880be86",
                    "locale": "ru_RU",
                    "version": "1.0",
                    "client_id": "mobile_maps_android",
                    "device_id": "e57cb3c1-2074-4a3d-a928-2720e15fb9f3"
                },
                "answer_id": "comment",
                "object_id": "1561531504",
                "form_point": {
                    "lat": 54.188139,
                    "lon": 37.612847
                },
                "object_url": "https://n.maps.yandex.ru/#!/objects/1561531504",
                "question_id": "other"
            },
            "created_at": "2017-09-14T15:30:55.812Z",
            "updated_at": "2017-09-19T09:05:02.389Z",
            "integration": {
            }
        },
        {
            "id": "8bb85c51-28c3-4477-aa74-a705d4b12e83",
            "service": "nmaps",
            "service_object_id": "1561531504",
            "service_object_url": "https://n.maps.yandex.ru/#!/objects/1561531504",
            "status": "rejected",
            "original_task": {
                "form_id": "toponym",
                "metadata": {
                    "uid": 515057235,
                    "uuid": "86c0fb0c-03cd-468b-b1b1-6eb4a880be86",
                    "locale": "ru_RU",
                    "version": "1.0",
                    "client_id": "mobile_maps_android",
                    "device_id": "e57cb3c1-2074-4a3d-a928-2720e15fb9f3"
                },
                "answer_id": "entrance",
                "object_id": "1561531504",
                "form_point": {
                    "lat": 54.188139,
                    "lon": 37.612847
                },
                "object_url": "https://n.maps.yandex.ru/#!/objects/1561531504",
                "question_id": "add_object",
                "answer_context": {
                    "entrance": {
                        "name": "мемориал",
                        "center_point": {
                            "lat": 54.18692372673432,
                            "lon": 37.61284699999999
                        }
                    }
                }
            },
            "created_at": "2017-09-14T15:30:46.999Z",
            "updated_at": "2017-09-19T09:05:02.729Z",
            "integration": {
            }
        },
        {
            "id": "115ea009-3065-4b03-ae05-1a311bdedb5a",
            "service": "nmaps",
            "service_object_id": "56697663",
            "service_object_url": "https://n.maps.yandex.ru/#!/objects/56697663",
            "status": "rejected",
            "original_task": {
                "form_id": "toponym",
                "message": "тест2",
                "metadata": {
                    "uuid": "cc70cac7-3516-4853-8307-3652a0c1cf59",
                    "locale": "ru_RU",
                    "version": "1.0",
                    "client_id": "mobile_maps_android",
                    "device_id": "e9fd2876-9912-4415-83b5-0213b6976be2"
                },
                "answer_id": "comment",
                "object_id": "56697663",
                "form_point": {
                    "lat": 55.733822,
                    "lon": 37.59047
                },
                "object_url": "https://n.maps.yandex.ru/#!/objects/56697663",
                "question_id": "other"
            },
            "created_at": "2017-09-14T08:20:25.876Z",
            "updated_at": "2017-09-19T09:05:04.809Z",
            "integration": {
            }
        },
        {
            "id": "d34bbcb2-1e23-4943-bc78-43c5d4dbb581",
            "service": "nmaps",
            "service_object_id": "56697663",
            "service_object_url": "https://n.maps.yandex.ru/#!/objects/56697663",
            "status": "rejected",
            "original_task": {
                "form_id": "toponym",
                "message": "тест",
                "metadata": {
                    "uuid": "cc70cac7-3516-4853-8307-3652a0c1cf59",
                    "locale": "ru_RU",
                    "version": "1.0",
                    "client_id": "mobile_maps_android",
                    "device_id": "e9fd2876-9912-4415-83b5-0213b6976be2"
                },
                "answer_id": "comment",
                "object_id": "56697663",
                "form_point": {
                    "lat": 55.733832,
                    "lon": 37.590542
                },
                "object_url": "https://n.maps.yandex.ru/#!/objects/56697663",
                "question_id": "other"
            },
            "created_at": "2017-09-14T08:19:51.553Z",
            "updated_at": "2017-09-19T09:05:05.571Z",
            "integration": {
            }
        }
    ],
    "meta": {
        "total": 2246349,
        "offset": 0,
        "limit": 4
    },
    "page_count": 561588
}
