{
  "savedSearch": null,
  "request": {
    "categoryId": "mobilnie-telefoni_OobNbL",
    "text": "",
    "area": {
      "coordinates": null,
      "toponyms": {
        "metro": [],
        "region": "225",
        "districts": []
      }
    },
    "parameters": []
  },
  "sorting": "ByRelevance",
  "category": {
    "id": "mobilnie-telefoni_OobNbL",
    "name": "Мобильные телефоны",
    "shortName": "Мобильные телефоны",
    "isLeaf": true,
    "uniqueName": "Мобильные телефоны",
    "nameForms": {
      "accusativePlural": "Мобильные телефоны",
      "accusativeSingular": "Мобильный телефон",
      "genitivePlural": "Мобильных телефонов"
    },
    "state": "Default",
    "forAdults": false,
    "parents": [
      {
        "id": "elektronika_UhWUEm",
        "shortName": "Электроника",
        "uniqueName": "Электроника",
        "state": "Default",
        "searchLinks": {
          "withRequestLink": {
            "url": "/rossiya/elektronika/",
            "route": "search"
          }
        }
      },
      {
        "id": "telefoni_H97hTE",
        "shortName": "Телефоны и умные часы",
        "uniqueName": "Телефоны и умные часы",
        "state": "Default",
        "searchLinks": {
          "withRequestLink": {
            "url": "/rossiya/elektronika/telefony-i-umnye-chasy/",
            "route": "search"
          }
        }
      }
    ],
    "children": []
  },
  "listing": {
    "canExpand": false,
    "snippets": [
    ],
    "misspell": null,
    "currentPage": 1,
    "hasNextPage": true,
    "nextPage": 2,
    "totalCount": 1162,
    "totalPageCount": 39,
    "searchRequestId": "-6195354312074307081",
    "nextPageToken": "CAEQHhoRODg2MDYwMTQyNTM4NjcwMDgqCwjF2rOC+v////8B",
    "selfLink": {
      "canonicalUrl": "/rossiya/elektronika/mobilnie-telefoni/",
      "route": "search"
    }
  },
  "adjacentCategories": [
    {
      "categoryId": "mobilnie-telefoni_OobNbL",
      "offersCount": 1162,
      "category": {
        "id": "mobilnie-telefoni_OobNbL",
        "shortName": "Мобильные телефоны",
        "uniqueName": "Мобильные телефоны",
        "state": "Default",
        "image": null,
        "searchLinks": {
          "withRequestLink": {
            "url": "/rossiya/elektronika/mobilnie-telefoni/",
            "route": "search"
          }
        }
      }
    }
  ],
  "searchParameters": [
    {
      "id": "offer.price.price_in_currency",
      "name": "Цена",
      "uriPart": "offer.price.price_in_currency",
      "control": "Range",
      "description": "Цена",
      "minValue": 0.0,
      "maxValue": null,
      "step": 1.0,
      "isFractional": false
    },
    {
      "id": "offer.price.is_free",
      "name": "Даром",
      "uriPart": "offer.price.is_free",
      "control": "Checkbox",
      "description": "Даром"
    },
    {
      "id": "offer.state",
      "name": "Состояние",
      "uriPart": "offer.state",
      "control": "Tags",
      "description": "Состояние",
      "allowedValues": [
        {
          "key": "new",
          "name": "Новый"
        },
        {
          "key": "used",
          "name": "Б/У"
        }
      ]
    },
    {
      "id": "offer.source",
      "name": "Тип продавца",
      "uriPart": "offer.source",
      "control": "Tags",
      "description": "Тип продавца",
      "allowedValues": [
        {
          "key": "feed",
          "name": "Компания"
        },
        {
          "key": "form",
          "name": "Частное лицо"
        }
      ]
    },
    {
      "id": "offer.attributes.proizvoditel-mobilnogo-telefona_454ghb",
      "name": "Производитель",
      "uriPart": "offer.attributes.proizvoditel-mobilnogo-telefona_454ghb",
      "control": "SelectMultiple",
      "description": "Производитель",
      "allowedValues": [
        {
          "key": "apple",
          "name": "Apple"
        },
        {
          "key": "agm",
          "name": "AGM"
        },
        {
          "key": "aiek",
          "name": "Aiek"
        },
        {
          "key": "alcatel",
          "name": "Alcatel"
        },
        {
          "key": "archos",
          "name": "Archos"
        },
        {
          "key": "ark",
          "name": "Ark"
        },
        {
          "key": "asus",
          "name": "Asus"
        },
        {
          "key": "bb",
          "name": "BB"
        },
        {
          "key": "bb-mobile",
          "name": "bb-mobile"
        },
        {
          "key": "bbk",
          "name": "BBK"
        },
        {
          "key": "black-fox",
          "name": "Black Fox"
        },
        {
          "key": "black-shark",
          "name": "Black Shark"
        },
        {
          "key": "blackberry",
          "name": "BlackBerry"
        },
        {
          "key": "blackview",
          "name": "Blackview"
        },
        {
          "key": "bq",
          "name": "BQ"
        },
        {
          "key": "caterpillar",
          "name": "Caterpillar"
        },
        {
          "key": "conquest",
          "name": "Conquest"
        },
        {
          "key": "cubot",
          "name": "Cubot"
        },
        {
          "key": "digma",
          "name": "Digma"
        },
        {
          "key": "doogee",
          "name": "Doogee"
        },
        {
          "key": "explay",
          "name": "Explay"
        },
        {
          "key": "fly",
          "name": "Fly"
        },
        {
          "key": "f",
          "name": "F+"
        },
        {
          "key": "gigabyte",
          "name": "Gigabyte"
        },
        {
          "key": "ginzzu",
          "name": "Ginzzu"
        },
        {
          "key": "google",
          "name": "Google"
        },
        {
          "key": "honor",
          "name": "Honor"
        },
        {
          "key": "huawei",
          "name": "Huawei"
        },
        {
          "key": "haier",
          "name": "Haier"
        },
        {
          "key": "hammer",
          "name": "Hammer"
        },
        {
          "key": "highscreen",
          "name": "Highscreen"
        },
        {
          "key": "hiper",
          "name": "Hiper"
        },
        {
          "key": "hisense",
          "name": "Hisense"
        },
        {
          "key": "homtom",
          "name": "Homtom"
        },
        {
          "key": "htc",
          "name": "HTC"
        },
        {
          "key": "innos",
          "name": "Innos"
        },
        {
          "key": "inoi",
          "name": "Inoi"
        },
        {
          "key": "intex",
          "name": "Intex"
        },
        {
          "key": "irbis",
          "name": "Irbis"
        },
        {
          "key": "itel",
          "name": "Itel"
        },
        {
          "key": "jesy",
          "name": "Jesy"
        },
        {
          "key": "jinga",
          "name": "Jinga"
        },
        {
          "key": "joy-s",
          "name": "Joy's"
        },
        {
          "key": "keneksi",
          "name": "Keneksi"
        },
        {
          "key": "krez",
          "name": "Krez"
        },
        {
          "key": "kyocera",
          "name": "Kyocera"
        },
        {
          "key": "land-rover",
          "name": "Land Rover"
        },
        {
          "key": "leagoo",
          "name": "Leagoo"
        },
        {
          "key": "leeco",
          "name": "LeEco"
        },
        {
          "key": "lenovo",
          "name": "Lenovo"
        },
        {
          "key": "lexand",
          "name": "Lexand"
        },
        {
          "key": "lg",
          "name": "LG"
        },
        {
          "key": "maxcom",
          "name": "MaxCom"
        },
        {
          "key": "maxvi",
          "name": "Maxvi"
        },
        {
          "key": "meizu",
          "name": "Meizu"
        },
        {
          "key": "micromax",
          "name": "Micromax"
        },
        {
          "key": "microsoft",
          "name": "Microsoft"
        },
        {
          "key": "motorola",
          "name": "Motorola"
        },
        {
          "key": "nokia",
          "name": "Nokia"
        },
        {
          "key": "noa",
          "name": "NOA"
        },
        {
          "key": "nobby",
          "name": "Nobby"
        },
        {
          "key": "nubia",
          "name": "Nubia"
        },
        {
          "key": "oneplus",
          "name": "OnePlus"
        },
        {
          "key": "oppo",
          "name": "Oppo"
        },
        {
          "key": "olmio",
          "name": "Olmio"
        },
        {
          "key": "onext",
          "name": "Onext"
        },
        {
          "key": "oukitel",
          "name": "Oukitel"
        },
        {
          "key": "oysters",
          "name": "Oysters"
        },
        {
          "key": "philips",
          "name": "Philips"
        },
        {
          "key": "palm",
          "name": "Palm"
        },
        {
          "key": "panasonic",
          "name": "Panasonic"
        },
        {
          "key": "prestigio",
          "name": "Prestigio"
        },
        {
          "key": "qumo",
          "name": "Qumo"
        },
        {
          "key": "realme",
          "name": "Realme"
        },
        {
          "key": "ritzviva",
          "name": "Ritzviva"
        },
        {
          "key": "runbo",
          "name": "Runbo"
        },
        {
          "key": "samsung",
          "name": "Samsung"
        },
        {
          "key": "senseit",
          "name": "Senseit"
        },
        {
          "key": "smartisan",
          "name": "Smartisan"
        },
        {
          "key": "sony",
          "name": "Sony"
        },
        {
          "key": "stark",
          "name": "Stark"
        },
        {
          "key": "strike",
          "name": "Strike"
        },
        {
          "key": "tecno",
          "name": "Tecno"
        },
        {
          "key": "tele2",
          "name": "Tele2"
        },
        {
          "key": "texet",
          "name": "teXet"
        },
        {
          "key": "torex",
          "name": "Torex"
        },
        {
          "key": "tp-link",
          "name": "Tp-link"
        },
        {
          "key": "turbo",
          "name": "Turbo"
        },
        {
          "key": "ulefone",
          "name": "Ulefone"
        },
        {
          "key": "umidigi",
          "name": "Umidigi"
        },
        {
          "key": "vertex",
          "name": "Vertex"
        },
        {
          "key": "vertu",
          "name": "Vertu"
        },
        {
          "key": "vivo",
          "name": "Vivo"
        },
        {
          "key": "vsmart",
          "name": "Vsmart"
        },
        {
          "key": "wigor",
          "name": "Wigor"
        },
        {
          "key": "xiaomi",
          "name": "Xiaomi"
        },
        {
          "key": "xdevice",
          "name": "xDevice"
        },
        {
          "key": "zte",
          "name": "ZTE"
        },
        {
          "key": "megafon",
          "name": "МегаФон"
        },
        {
          "key": "mts",
          "name": "МТС"
        },
        {
          "key": "yandeks",
          "name": "Яндекс"
        }
      ]
    },
    {
      "id": "offer.attributes.kolichestvo-sim-kart_2vDp2x",
      "name": "Количество SIM-карт",
      "uriPart": "offer.attributes.kolichestvo-sim-kart_2vDp2x",
      "control": "Range",
      "description": "Количество SIM-карт",
      "minValue": 1.0,
      "maxValue": 4.0,
      "step": 1.0,
      "isFractional": false
    },
    {
      "id": "offer.attributes.cvet-telefona_Ay5zjq",
      "name": "Цвет телефона",
      "uriPart": "offer.attributes.cvet-telefona_Ay5zjq",
      "control": "SelectMultiple",
      "description": "Цвет телефона",
      "allowedValues": [
        {
          "key": "belyy",
          "name": "белый"
        },
        {
          "key": "zelyonyy",
          "name": "зелёный"
        },
        {
          "key": "zolotoy",
          "name": "золотой"
        },
        {
          "key": "krasnyy",
          "name": "красный"
        },
        {
          "key": "oranzhevyy",
          "name": "оранжевый"
        },
        {
          "key": "rozovoe-zoloto",
          "name": "розовое золото"
        },
        {
          "key": "rozovyy",
          "name": "розовый"
        },
        {
          "key": "serebristyy",
          "name": "серебристый"
        },
        {
          "key": "seryy",
          "name": "серый"
        },
        {
          "key": "siniy",
          "name": "синий"
        },
        {
          "key": "stalnoy",
          "name": "стальной"
        },
        {
          "key": "fioletovyy",
          "name": "фиолетовый"
        },
        {
          "key": "chernyy",
          "name": "черный"
        }
      ]
    }
  ],
  "statistics": {
    "price": {
      "min": "0",
      "max": "129850"
    },
    "sellersCount": 971
  }
}