{
  "savedSearch": null,
  "request": {
    "categoryId": null,
    "text": "квартира",
    "area": {
      "coordinates": null,
      "toponyms": {
        "metro": [],
        "region": "213",
        "districts": []
      }
    },
    "parameters": [],
    "lockedFields": []
  },
  "sorting": "ByRelevance",
  "category": null,
  "listing": {
    "canExpand": true,
    "snippets": [],
    "changedFields": {
      "changedText": null,
      "changedRegion": null,
      "changedCategory": null,
      "changedParameters": null
    },
    "currentPage": 1,
    "hasNextPage": true,
    "nextPage": 2,
    "totalCount": 427,
    "totalPageCount": 15,
    "searchRequestId": "-4084305886749062999",
    "nextPageToken": "CAEQHioGCNCNp5AB",
    "selfLink": {
      "canonicalUrl": "/moskva/",
      "route": "search"
    }
  },
  "adjacentCategories": [
    {
      "categoryId": "dizayn-i-izgotovlenie-tovarov_Ap4rSC",
      "offersCount": 2,
      "category": {
        "id": "dizayn-i-izgotovlenie-tovarov_Ap4rSC",
        "shortName": "Дизайн, изготовление и реставрация товаров",
        "uniqueName": "Услуги изготовления и реставрации товаров",
        "state": "Default",
        "parents": [
          {
            "id": "uslugi_nUzITh",
            "shortName": "Услуги",
            "searchLinks": {
              "withRequestLink": {
                "url": "/moskva/uslugi/?text=%D0%BA%D0%B2%D0%B0%D1%80%D1%82%D0%B8%D1%80%D0%B0",
                "route": "search"
              }
            }
          },
          {
            "id": "predlozheniya-uslug_rOv5Sl",
            "shortName": "Предложения услуг",
            "searchLinks": {
              "withRequestLink": {
                "url": "/moskva/uslugi/predlozheniya-uslug/?text=%D0%BA%D0%B2%D0%B0%D1%80%D1%82%D0%B8%D1%80%D0%B0",
                "route": "search"
              }
            }
          }
        ],
        "searchLinks": {
          "withRequestLink": {
            "url": "/moskva/uslugi/uslugi-izgotovleniya-i-restavracii-tovarov/?text=%D0%BA%D0%B2%D0%B0%D1%80%D1%82%D0%B8%D1%80%D0%B0",
            "route": "search"
          }
        }
      }
    },
    {
      "categoryId": "vodonagrevateli_5GnUGE",
      "offersCount": 241,
      "category": {
        "id": "vodonagrevateli_5GnUGE",
        "shortName": "Водонагреватели",
        "uniqueName": "Водонагреватели",
        "state": "Default",
        "parents": [
          {
            "id": "bitovaya-tehnika_hQd041",
            "shortName": "Бытовая техника",
            "searchLinks": {
              "withRequestLink": {
                "url": "/moskva/bitovaya-tehnika/?text=%D0%BA%D0%B2%D0%B0%D1%80%D1%82%D0%B8%D1%80%D0%B0",
                "route": "search"
              }
            }
          },
          {
            "id": "klimaticheskaya-tehnika_VsDq2v",
            "shortName": "Климатическая техника",
            "searchLinks": {
              "withRequestLink": {
                "url": "/moskva/bitovaya-tehnika/klimaticheskaya-tehnika/?text=%D0%BA%D0%B2%D0%B0%D1%80%D1%82%D0%B8%D1%80%D0%B0",
                "route": "search"
              }
            }
          }
        ],
        "searchLinks": {
          "withRequestLink": {
            "url": "/moskva/bitovaya-tehnika/vodonagrevateli/?text=%D0%BA%D0%B2%D0%B0%D1%80%D1%82%D0%B8%D1%80%D0%B0",
            "route": "search"
          }
        }
      }
    },
    {
      "categoryId": "zerkala_eKoQE7",
      "offersCount": 46,
      "category": {
        "id": "zerkala_eKoQE7",
        "shortName": "Зеркала",
        "uniqueName": "Зеркала",
        "state": "Default",
        "parents": [
          {
            "id": "tovari-dlya-doma_IywA8a",
            "shortName": "Товары для дома",
            "searchLinks": {
              "withRequestLink": {
                "url": "/moskva/tovari-dlya-doma/?text=%D0%BA%D0%B2%D0%B0%D1%80%D1%82%D0%B8%D1%80%D0%B0",
                "route": "search"
              }
            }
          },
          {
            "id": "interer-1_IasF0e",
            "shortName": "Интерьер",
            "searchLinks": {
              "withRequestLink": {
                "url": "/moskva/tovari-dlya-doma/tovary-dlya-interera/?text=%D0%BA%D0%B2%D0%B0%D1%80%D1%82%D0%B8%D1%80%D0%B0",
                "route": "search"
              }
            }
          }
        ],
        "searchLinks": {
          "withRequestLink": {
            "url": "/moskva/tovari-dlya-doma/zerkala/?text=%D0%BA%D0%B2%D0%B0%D1%80%D1%82%D0%B8%D1%80%D0%B0",
            "route": "search"
          }
        }
      }
    },
    {
      "categoryId": "obogrevateli_bv2XQD",
      "offersCount": 36,
      "category": {
        "id": "obogrevateli_bv2XQD",
        "shortName": "Обогреватели",
        "uniqueName": "Обогреватели",
        "state": "Default",
        "parents": [
          {
            "id": "bitovaya-tehnika_hQd041",
            "shortName": "Бытовая техника",
            "searchLinks": {
              "withRequestLink": {
                "url": "/moskva/bitovaya-tehnika/?text=%D0%BA%D0%B2%D0%B0%D1%80%D1%82%D0%B8%D1%80%D0%B0",
                "route": "search"
              }
            }
          },
          {
            "id": "klimaticheskaya-tehnika_VsDq2v",
            "shortName": "Климатическая техника",
            "searchLinks": {
              "withRequestLink": {
                "url": "/moskva/bitovaya-tehnika/klimaticheskaya-tehnika/?text=%D0%BA%D0%B2%D0%B0%D1%80%D1%82%D0%B8%D1%80%D0%B0",
                "route": "search"
              }
            }
          }
        ],
        "searchLinks": {
          "withRequestLink": {
            "url": "/moskva/bitovaya-tehnika/obogrevateli/?text=%D0%BA%D0%B2%D0%B0%D1%80%D1%82%D0%B8%D1%80%D0%B0",
            "route": "search"
          }
        }
      }
    },
    {
      "categoryId": "novogodniy-dekor_YcUKVv",
      "offersCount": 18,
      "category": {
        "id": "novogodniy-dekor_YcUKVv",
        "shortName": "Новогодний декор и аксессуары",
        "uniqueName": "Новогодний декор и аксессуары",
        "state": "Default",
        "parents": [
          {
            "id": "tovari-dlya-doma_IywA8a",
            "shortName": "Товары для дома",
            "searchLinks": {
              "withRequestLink": {
                "url": "/moskva/tovari-dlya-doma/?text=%D0%BA%D0%B2%D0%B0%D1%80%D1%82%D0%B8%D1%80%D0%B0",
                "route": "search"
              }
            }
          },
          {
            "id": "novogodnie-tovari_D3yw0Y",
            "shortName": "Новогодние товары",
            "searchLinks": {
              "withRequestLink": {
                "url": "/moskva/tovari-dlya-doma/novogodnie-tovari/?text=%D0%BA%D0%B2%D0%B0%D1%80%D1%82%D0%B8%D1%80%D0%B0",
                "route": "search"
              }
            }
          }
        ],
        "searchLinks": {
          "withRequestLink": {
            "url": "/moskva/tovari-dlya-doma/novogodniy-dekor-i-aksessuary/?text=%D0%BA%D0%B2%D0%B0%D1%80%D1%82%D0%B8%D1%80%D0%B0",
            "route": "search"
          }
        }
      }
    },
    {
      "categoryId": "velosipedi_D3entx",
      "offersCount": 15,
      "category": {
        "id": "velosipedi_D3entx",
        "shortName": "Велосипеды",
        "uniqueName": "Велосипеды",
        "state": "Default",
        "parents": [
          {
            "id": "sport-i-otdih_9Uy86l",
            "shortName": "Спорт и отдых",
            "searchLinks": {
              "withRequestLink": {
                "url": "/moskva/sport-i-otdih/?text=%D0%BA%D0%B2%D0%B0%D1%80%D1%82%D0%B8%D1%80%D0%B0",
                "route": "search"
              }
            }
          },
          {
            "id": "velosport_LhaEr3",
            "shortName": "Велоспорт",
            "searchLinks": {
              "withRequestLink": {
                "url": "/moskva/sport-i-otdih/velosport/?text=%D0%BA%D0%B2%D0%B0%D1%80%D1%82%D0%B8%D1%80%D0%B0",
                "route": "search"
              }
            }
          }
        ],
        "searchLinks": {
          "withRequestLink": {
            "url": "/moskva/sport-i-otdih/velosipedi/?text=%D0%BA%D0%B2%D0%B0%D1%80%D1%82%D0%B8%D1%80%D0%B0",
            "route": "search"
          }
        }
      }
    },
    {
      "categoryId": "ochistiteli-i-uvlazhniteli-vozduha_H8RW9w",
      "offersCount": 10,
      "category": {
        "id": "ochistiteli-i-uvlazhniteli-vozduha_H8RW9w",
        "shortName": "Очистители и увлажнители воздуха",
        "uniqueName": "Очистители и увлажнители воздуха",
        "state": "Default",
        "parents": [
          {
            "id": "bitovaya-tehnika_hQd041",
            "shortName": "Бытовая техника",
            "searchLinks": {
              "withRequestLink": {
                "url": "/moskva/bitovaya-tehnika/?text=%D0%BA%D0%B2%D0%B0%D1%80%D1%82%D0%B8%D1%80%D0%B0",
                "route": "search"
              }
            }
          },
          {
            "id": "klimaticheskaya-tehnika_VsDq2v",
            "shortName": "Климатическая техника",
            "searchLinks": {
              "withRequestLink": {
                "url": "/moskva/bitovaya-tehnika/klimaticheskaya-tehnika/?text=%D0%BA%D0%B2%D0%B0%D1%80%D1%82%D0%B8%D1%80%D0%B0",
                "route": "search"
              }
            }
          }
        ],
        "searchLinks": {
          "withRequestLink": {
            "url": "/moskva/bitovaya-tehnika/ochistiteli-i-uvlazhniteli-vozduha/?text=%D0%BA%D0%B2%D0%B0%D1%80%D1%82%D0%B8%D1%80%D0%B0",
            "route": "search"
          }
        }
      }
    },
    {
      "categoryId": "interernaya-podsvetka_7Gt7Zs",
      "offersCount": 6,
      "category": {
        "id": "interernaya-podsvetka_7Gt7Zs",
        "shortName": "Интерьерная подсветка",
        "uniqueName": "Интерьерная подсветка",
        "state": "Default",
        "parents": [
          {
            "id": "tovari-dlya-doma_IywA8a",
            "shortName": "Товары для дома",
            "searchLinks": {
              "withRequestLink": {
                "url": "/moskva/tovari-dlya-doma/?text=%D0%BA%D0%B2%D0%B0%D1%80%D1%82%D0%B8%D1%80%D0%B0",
                "route": "search"
              }
            }
          },
          {
            "id": "osveschenie_V459Fa",
            "shortName": "Освещение",
            "searchLinks": {
              "withRequestLink": {
                "url": "/moskva/tovari-dlya-doma/tovary-dlya-domashnego-osveshcheniya/?text=%D0%BA%D0%B2%D0%B0%D1%80%D1%82%D0%B8%D1%80%D0%B0",
                "route": "search"
              }
            }
          }
        ],
        "searchLinks": {
          "withRequestLink": {
            "url": "/moskva/tovari-dlya-doma/interernaya-podsvetka/?text=%D0%BA%D0%B2%D0%B0%D1%80%D1%82%D0%B8%D1%80%D0%B0",
            "route": "search"
          }
        }
      }
    },
    {
      "categoryId": "gladilnie-doski_KUKF4t",
      "offersCount": 5,
      "category": {
        "id": "gladilnie-doski_KUKF4t",
        "shortName": "Гладильные доски",
        "uniqueName": "Гладильные доски",
        "state": "Default",
        "parents": [
          {
            "id": "tovari-dlya-doma_IywA8a",
            "shortName": "Товары для дома",
            "searchLinks": {
              "withRequestLink": {
                "url": "/moskva/tovari-dlya-doma/?text=%D0%BA%D0%B2%D0%B0%D1%80%D1%82%D0%B8%D1%80%D0%B0",
                "route": "search"
              }
            }
          },
          {
            "id": "hozyaystvennie-tovari_bZEtNf",
            "shortName": "Хозяйственные товары",
            "searchLinks": {
              "withRequestLink": {
                "url": "/moskva/tovari-dlya-doma/hozyaystvennie-tovari/?text=%D0%BA%D0%B2%D0%B0%D1%80%D1%82%D0%B8%D1%80%D0%B0",
                "route": "search"
              }
            }
          },
          {
            "id": "tovari-dlya-uhoda-za-odezhdoy-i-belem_lYBcPN",
            "shortName": "Товары для ухода за одеждой и бельем",
            "searchLinks": {
              "withRequestLink": {
                "url": "/moskva/tovari-dlya-doma/tovari-dlya-uhoda-za-odezhdoy-i-belem/?text=%D0%BA%D0%B2%D0%B0%D1%80%D1%82%D0%B8%D1%80%D0%B0",
                "route": "search"
              }
            }
          }
        ],
        "searchLinks": {
          "withRequestLink": {
            "url": "/moskva/tovari-dlya-doma/gladilnie-doski/?text=%D0%BA%D0%B2%D0%B0%D1%80%D1%82%D0%B8%D1%80%D0%B0",
            "route": "search"
          }
        }
      }
    },
    {
      "categoryId": "otopitelnie-kotli_kjEbik",
      "offersCount": 4,
      "category": {
        "id": "otopitelnie-kotli_kjEbik",
        "shortName": "Отопительные котлы",
        "uniqueName": "Отопительные котлы",
        "state": "Default",
        "parents": [
          {
            "id": "stroitelstvo-i-remont_h7HBY6",
            "shortName": "Строительство и ремонт",
            "searchLinks": {
              "withRequestLink": {
                "url": "/moskva/stroitelstvo-i-remont/?text=%D0%BA%D0%B2%D0%B0%D1%80%D1%82%D0%B8%D1%80%D0%B0",
                "route": "search"
              }
            }
          },
          {
            "id": "otoplenie-i-ventilyaciya_zJJf3N",
            "shortName": "Отопление и вентиляция",
            "searchLinks": {
              "withRequestLink": {
                "url": "/moskva/stroitelstvo-i-remont/tovary-dlya-otopleniya-i-ventilyacii/?text=%D0%BA%D0%B2%D0%B0%D1%80%D1%82%D0%B8%D1%80%D0%B0",
                "route": "search"
              }
            }
          }
        ],
        "searchLinks": {
          "withRequestLink": {
            "url": "/moskva/stroitelstvo-i-remont/otopitelnie-kotli/?text=%D0%BA%D0%B2%D0%B0%D1%80%D1%82%D0%B8%D1%80%D0%B0",
            "route": "search"
          }
        }
      }
    }
  ],
  "relatedSearches": [
    {
      "searchRequest": {
        "text": "ремонт квартир",
        "categoryId": null,
        "category": null,
        "parameters": []
      },
      "parameterDescriptions": [],
      "searchLink": {
        "url": "/moskva/?text=%D1%80%D0%B5%D0%BC%D0%BE%D0%BD%D1%82%20%D0%BA%D0%B2%D0%B0%D1%80%D1%82%D0%B8%D1%80",
        "canonicalUrl": "/moskva/",
        "route": "search"
      }
    },
    {
      "searchRequest": {
        "text": "поклейка обоев",
        "categoryId": null,
        "category": null,
        "parameters": []
      },
      "parameterDescriptions": [],
      "searchLink": {
        "url": "/moskva/tag/pokleyka-oboev/",
        "canonicalUrl": "/moskva/tag/pokleyka-oboev/",
        "route": "search"
      }
    },
    {
      "searchRequest": {
        "text": "демонтажные работы",
        "categoryId": null,
        "category": null,
        "parameters": []
      },
      "parameterDescriptions": [],
      "searchLink": {
        "url": "/moskva/?text=%D0%B4%D0%B5%D0%BC%D0%BE%D0%BD%D1%82%D0%B0%D0%B6%D0%BD%D1%8B%D0%B5%20%D1%80%D0%B0%D0%B1%D0%BE%D1%82%D1%8B",
        "canonicalUrl": "/moskva/",
        "route": "search"
      }
    },
    {
      "searchRequest": {
        "text": "асфальтирование",
        "categoryId": null,
        "category": null,
        "parameters": []
      },
      "parameterDescriptions": [],
      "searchLink": {
        "url": "/moskva/tag/asfaltirovanie/",
        "canonicalUrl": "/moskva/tag/asfaltirovanie/",
        "route": "search"
      }
    },
    {
      "searchRequest": {
        "text": "углубление колодца",
        "categoryId": null,
        "category": null,
        "parameters": []
      },
      "parameterDescriptions": [],
      "searchLink": {
        "url": "/moskva/tag/uglublenie-kolodca/",
        "canonicalUrl": "/moskva/tag/uglublenie-kolodca/",
        "route": "search"
      }
    },
    {
      "searchRequest": {
        "text": "ремонт квартир под ключ",
        "categoryId": null,
        "category": null,
        "parameters": []
      },
      "parameterDescriptions": [],
      "searchLink": {
        "url": "/moskva/?text=%D1%80%D0%B5%D0%BC%D0%BE%D0%BD%D1%82%20%D0%BA%D0%B2%D0%B0%D1%80%D1%82%D0%B8%D1%80%20%D0%BF%D0%BE%D0%B4%20%D0%BA%D0%BB%D1%8E%D1%87",
        "canonicalUrl": "/moskva/",
        "route": "search"
      }
    },
    {
      "searchRequest": {
        "text": "отделочные работы",
        "categoryId": null,
        "category": null,
        "parameters": []
      },
      "parameterDescriptions": [],
      "searchLink": {
        "url": "/moskva/?text=%D0%BE%D1%82%D0%B4%D0%B5%D0%BB%D0%BE%D1%87%D0%BD%D1%8B%D0%B5%20%D1%80%D0%B0%D0%B1%D0%BE%D1%82%D1%8B",
        "canonicalUrl": "/moskva/",
        "route": "search"
      }
    },
    {
      "searchRequest": {
        "text": "ремонт ванной комнаты под ключ",
        "categoryId": null,
        "category": null,
        "parameters": []
      },
      "parameterDescriptions": [],
      "searchLink": {
        "url": "/moskva/?text=%D1%80%D0%B5%D0%BC%D0%BE%D0%BD%D1%82%20%D0%B2%D0%B0%D0%BD%D0%BD%D0%BE%D0%B9%20%D0%BA%D0%BE%D0%BC%D0%BD%D0%B0%D1%82%D1%8B%20%D0%BF%D0%BE%D0%B4%20%D0%BA%D0%BB%D1%8E%D1%87",
        "canonicalUrl": "/moskva/",
        "route": "search"
      }
    },
    {
      "searchRequest": {
        "text": "укладка асфальта",
        "categoryId": null,
        "category": null,
        "parameters": []
      },
      "parameterDescriptions": [],
      "searchLink": {
        "url": "/moskva/?text=%D1%83%D0%BA%D0%BB%D0%B0%D0%B4%D0%BA%D0%B0%20%D0%B0%D1%81%D1%84%D0%B0%D0%BB%D1%8C%D1%82%D0%B0",
        "canonicalUrl": "/moskva/",
        "route": "search"
      }
    },
    {
      "searchRequest": {
        "text": "копка траншей",
        "categoryId": null,
        "category": null,
        "parameters": []
      },
      "parameterDescriptions": [],
      "searchLink": {
        "url": "/moskva/?text=%D0%BA%D0%BE%D0%BF%D0%BA%D0%B0%20%D1%82%D1%80%D0%B0%D0%BD%D1%88%D0%B5%D0%B9",
        "canonicalUrl": "/moskva/",
        "route": "search"
      }
    },
    {
      "searchRequest": {
        "text": "чистка колодцев",
        "categoryId": null,
        "category": null,
        "parameters": []
      },
      "parameterDescriptions": [],
      "searchLink": {
        "url": "/moskva/?text=%D1%87%D0%B8%D1%81%D1%82%D0%BA%D0%B0%20%D0%BA%D0%BE%D0%BB%D0%BE%D0%B4%D1%86%D0%B5%D0%B2",
        "canonicalUrl": "/moskva/",
        "route": "search"
      }
    },
    {
      "searchRequest": {
        "text": "копка колодца",
        "categoryId": null,
        "category": null,
        "parameters": []
      },
      "parameterDescriptions": [],
      "searchLink": {
        "url": "/moskva/?text=%D0%BA%D0%BE%D0%BF%D0%BA%D0%B0%20%D0%BA%D0%BE%D0%BB%D0%BE%D0%B4%D1%86%D0%B0",
        "canonicalUrl": "/moskva/",
        "route": "search"
      }
    },
    {
      "searchRequest": {
        "text": "полусухая стяжка пола",
        "categoryId": null,
        "category": null,
        "parameters": []
      },
      "parameterDescriptions": [],
      "searchLink": {
        "url": "/moskva/tag/polusuhaya-styazhka-pola/",
        "canonicalUrl": "/moskva/tag/polusuhaya-styazhka-pola/",
        "route": "search"
      }
    },
    {
      "searchRequest": {
        "text": "строительная бригада",
        "categoryId": null,
        "category": null,
        "parameters": []
      },
      "parameterDescriptions": [],
      "searchLink": {
        "url": "/moskva/?text=%D1%81%D1%82%D1%80%D0%BE%D0%B8%D1%82%D0%B5%D0%BB%D1%8C%D0%BD%D0%B0%D1%8F%20%D0%B1%D1%80%D0%B8%D0%B3%D0%B0%D0%B4%D0%B0",
        "canonicalUrl": "/moskva/",
        "route": "search"
      }
    },
    {
      "searchRequest": {
        "text": "бригада строителей",
        "categoryId": null,
        "category": null,
        "parameters": []
      },
      "parameterDescriptions": [],
      "searchLink": {
        "url": "/moskva/?text=%D0%B1%D1%80%D0%B8%D0%B3%D0%B0%D0%B4%D0%B0%20%D1%81%D1%82%D1%80%D0%BE%D0%B8%D1%82%D0%B5%D0%BB%D0%B5%D0%B9",
        "canonicalUrl": "/moskva/",
        "route": "search"
      }
    },
    {
      "searchRequest": {
        "text": "проект дома",
        "categoryId": null,
        "category": null,
        "parameters": []
      },
      "parameterDescriptions": [],
      "searchLink": {
        "url": "/moskva/?text=%D0%BF%D1%80%D0%BE%D0%B5%D0%BA%D1%82%20%D0%B4%D0%BE%D0%BC%D0%B0",
        "canonicalUrl": "/moskva/",
        "route": "search"
      }
    },
    {
      "searchRequest": {
        "text": "благоустройство",
        "categoryId": null,
        "category": null,
        "parameters": []
      },
      "parameterDescriptions": [],
      "searchLink": {
        "url": "/moskva/?text=%D0%B1%D0%BB%D0%B0%D0%B3%D0%BE%D1%83%D1%81%D1%82%D1%80%D0%BE%D0%B9%D1%81%D1%82%D0%B2%D0%BE",
        "canonicalUrl": "/moskva/",
        "route": "search"
      }
    },
    {
      "searchRequest": {
        "text": "кровельные работы",
        "categoryId": null,
        "category": null,
        "parameters": []
      },
      "parameterDescriptions": [],
      "searchLink": {
        "url": "/moskva/?text=%D0%BA%D1%80%D0%BE%D0%B2%D0%B5%D0%BB%D1%8C%D0%BD%D1%8B%D0%B5%20%D1%80%D0%B0%D0%B1%D0%BE%D1%82%D1%8B",
        "canonicalUrl": "/moskva/",
        "route": "search"
      }
    },
    {
      "searchRequest": {
        "text": "демонтаж",
        "categoryId": null,
        "category": null,
        "parameters": []
      },
      "parameterDescriptions": [],
      "searchLink": {
        "url": "/moskva/?text=%D0%B4%D0%B5%D0%BC%D0%BE%D0%BD%D1%82%D0%B0%D0%B6",
        "canonicalUrl": "/moskva/",
        "route": "search"
      }
    },
    {
      "searchRequest": {
        "text": "штукатурка стен",
        "categoryId": null,
        "category": null,
        "parameters": []
      },
      "parameterDescriptions": [],
      "searchLink": {
        "url": "/moskva/?text=%D1%88%D1%82%D1%83%D0%BA%D0%B0%D1%82%D1%83%D1%80%D0%BA%D0%B0%20%D1%81%D1%82%D0%B5%D0%BD",
        "canonicalUrl": "/moskva/",
        "route": "search"
      }
    },
    {
      "searchRequest": {
        "text": "проектирование домов",
        "categoryId": null,
        "category": null,
        "parameters": []
      },
      "parameterDescriptions": [],
      "searchLink": {
        "url": "/moskva/?text=%D0%BF%D1%80%D0%BE%D0%B5%D0%BA%D1%82%D0%B8%D1%80%D0%BE%D0%B2%D0%B0%D0%BD%D0%B8%D0%B5%20%D0%B4%D0%BE%D0%BC%D0%BE%D0%B2",
        "canonicalUrl": "/moskva/",
        "route": "search"
      }
    },
    {
      "searchRequest": {
        "text": "ремонт квартиры",
        "categoryId": null,
        "category": null,
        "parameters": []
      },
      "parameterDescriptions": [],
      "searchLink": {
        "url": "/moskva/?text=%D1%80%D0%B5%D0%BC%D0%BE%D0%BD%D1%82%20%D0%BA%D0%B2%D0%B0%D1%80%D1%82%D0%B8%D1%80%D1%8B",
        "canonicalUrl": "/moskva/",
        "route": "search"
      }
    },
    {
      "searchRequest": {
        "text": "ландшафтный дизайн",
        "categoryId": null,
        "category": null,
        "parameters": []
      },
      "parameterDescriptions": [],
      "searchLink": {
        "url": "/moskva/?text=%D0%BB%D0%B0%D0%BD%D0%B4%D1%88%D0%B0%D1%84%D1%82%D0%BD%D1%8B%D0%B9%20%D0%B4%D0%B8%D0%B7%D0%B0%D0%B9%D0%BD",
        "canonicalUrl": "/moskva/",
        "route": "search"
      }
    },
    {
      "searchRequest": {
        "text": "дизайн интерьера",
        "categoryId": null,
        "category": null,
        "parameters": []
      },
      "parameterDescriptions": [],
      "searchLink": {
        "url": "/moskva/?text=%D0%B4%D0%B8%D0%B7%D0%B0%D0%B9%D0%BD%20%D0%B8%D0%BD%D1%82%D0%B5%D1%80%D1%8C%D0%B5%D1%80%D0%B0",
        "canonicalUrl": "/moskva/",
        "route": "search"
      }
    },
    {
      "searchRequest": {
        "text": "услуги по ремонту квартир",
        "categoryId": null,
        "category": null,
        "parameters": []
      },
      "parameterDescriptions": [],
      "searchLink": {
        "url": "/moskva/?text=%D1%83%D1%81%D0%BB%D1%83%D0%B3%D0%B8%20%D0%BF%D0%BE%20%D1%80%D0%B5%D0%BC%D0%BE%D0%BD%D1%82%D1%83%20%D0%BA%D0%B2%D0%B0%D1%80%D1%82%D0%B8%D1%80",
        "canonicalUrl": "/moskva/",
        "route": "search"
      }
    }
  ],
  "searchParameters": [
    {
      "id": "price",
      "name": "Цена",
      "uriPart": "price",
      "control": "Range",
      "description": "Цена",
      "incompatibleParameters": [
        "offer.price.is_free"
      ],
      "minValue": 0.0,
      "maxValue": null,
      "step": 1.0,
      "isFractional": false
    },
    {
      "id": "disable_delivery",
      "name": "Искать в моем регионе",
      "uriPart": "disable_delivery",
      "control": "Checkbox",
      "description": "Искать в моем регионе",
      "incompatibleParameters": [],
      "relatedAttribute": null
    }
  ],
  "statistics": {
    "price": {
      "min": "1",
      "max": "631280"
    },
    "sellersCount": 2
  }
}