{
  "result": {
    "items": [
      {
        "id": "sto_8837659367140151222",
        "backa_id": null,
        "client_id": "1098",
        "raw_address": "Коммерческий проезд, 8с1",
        "address_description": "Мы находимся рядом с МЕГА Белая Дача (600 метров)",
        "full_name": "Флайт авто, Официальный дилер Honda",
        "short_name": null,
        "semantic_url": "flayt_avto_ofitsialnyy_diler_honda",
        "description": "Компания Флайт Авто является официальным дилером Honda, Suzuki, Geely по направлениям.\n\n- Продажа автомобилей Honda, Suzuki, Geely.\n- Обслуживание автомобилей Honda, Suzuki, Geely.\n- Продажа и обслуживание силовой техники Honda.\n\nОфициальный дилер - это, прежде всего, высокое качество обслуживания, специалисты высокой квалификации, а также весь спектр услуг для владельцев автомобилей Honda, Suzuki, Geely.",
        "short_description": null,
        "is_official": true,
        "is_clubbed": false,
        "relevance": 2001132,
        "work_type_depends_relevance": 2006820992,
        "work_type_independs_relevance": 1791413760,
        "gallery": [
          {
            "type": null,
            "description": null,
            "title": null,
            "mds_group": "362543",
            "order": 0,
            "alias_to_url": [
              {
                "320x220": "//images.mds-proxy.test.autoru.yandex.net/get-sto/362543/88a7ae6e925154377a25a489cc6428ea/320x220"
              },
              {
                "orig": "//images.mds-proxy.test.autoru.yandex.net/get-sto/362543/88a7ae6e925154377a25a489cc6428ea/orig"
              },
              {
                "1200x900": "//images.mds-proxy.test.autoru.yandex.net/get-sto/362543/88a7ae6e925154377a25a489cc6428ea/1200x900"
              },
              {
                "620x290": "//images.mds-proxy.test.autoru.yandex.net/get-sto/362543/88a7ae6e925154377a25a489cc6428ea/620x290"
              },
              {
                "140x110": "//images.mds-proxy.test.autoru.yandex.net/get-sto/362543/88a7ae6e925154377a25a489cc6428ea/140x110"
              },
              {
                "280x140": "//images.mds-proxy.test.autoru.yandex.net/get-sto/362543/88a7ae6e925154377a25a489cc6428ea/280x140"
              }
            ]
          },
          {
            "type": null,
            "description": null,
            "title": null,
            "mds_group": "362543",
            "order": 1,
            "alias_to_url": [
              {
                "320x220": "//images.mds-proxy.test.autoru.yandex.net/get-sto/362543/7ec69030bf166487ba0d23be29385e4e/320x220"
              },
              {
                "orig": "//images.mds-proxy.test.autoru.yandex.net/get-sto/362543/7ec69030bf166487ba0d23be29385e4e/orig"
              },
              {
                "1200x900": "//images.mds-proxy.test.autoru.yandex.net/get-sto/362543/7ec69030bf166487ba0d23be29385e4e/1200x900"
              },
              {
                "620x290": "//images.mds-proxy.test.autoru.yandex.net/get-sto/362543/7ec69030bf166487ba0d23be29385e4e/620x290"
              },
              {
                "140x110": "//images.mds-proxy.test.autoru.yandex.net/get-sto/362543/7ec69030bf166487ba0d23be29385e4e/140x110"
              },
              {
                "280x140": "//images.mds-proxy.test.autoru.yandex.net/get-sto/362543/7ec69030bf166487ba0d23be29385e4e/280x140"
              }
            ]
          },
          {
            "type": null,
            "description": null,
            "title": null,
            "mds_group": "246909",
            "order": 2,
            "alias_to_url": [
              {
                "320x220": "//images.mds-proxy.test.autoru.yandex.net/get-sto/246909/9ed179725e713b7d9243f83bce1feea1/320x220"
              },
              {
                "orig": "//images.mds-proxy.test.autoru.yandex.net/get-sto/246909/9ed179725e713b7d9243f83bce1feea1/orig"
              },
              {
                "1200x900": "//images.mds-proxy.test.autoru.yandex.net/get-sto/246909/9ed179725e713b7d9243f83bce1feea1/1200x900"
              },
              {
                "620x290": "//images.mds-proxy.test.autoru.yandex.net/get-sto/246909/9ed179725e713b7d9243f83bce1feea1/620x290"
              },
              {
                "140x110": "//images.mds-proxy.test.autoru.yandex.net/get-sto/246909/9ed179725e713b7d9243f83bce1feea1/140x110"
              },
              {
                "280x140": "//images.mds-proxy.test.autoru.yandex.net/get-sto/246909/9ed179725e713b7d9243f83bce1feea1/280x140"
              }
            ]
          },
          {
            "type": null,
            "description": null,
            "title": null,
            "mds_group": "200367",
            "order": 3,
            "alias_to_url": [
              {
                "320x220": "//images.mds-proxy.test.autoru.yandex.net/get-sto/200367/814925662ac370b4ff0bd5998010b097/320x220"
              },
              {
                "orig": "//images.mds-proxy.test.autoru.yandex.net/get-sto/200367/814925662ac370b4ff0bd5998010b097/orig"
              },
              {
                "1200x900": "//images.mds-proxy.test.autoru.yandex.net/get-sto/200367/814925662ac370b4ff0bd5998010b097/1200x900"
              },
              {
                "620x290": "//images.mds-proxy.test.autoru.yandex.net/get-sto/200367/814925662ac370b4ff0bd5998010b097/620x290"
              },
              {
                "140x110": "//images.mds-proxy.test.autoru.yandex.net/get-sto/200367/814925662ac370b4ff0bd5998010b097/140x110"
              },
              {
                "280x140": "//images.mds-proxy.test.autoru.yandex.net/get-sto/200367/814925662ac370b4ff0bd5998010b097/280x140"
              }
            ]
          },
          {
            "type": null,
            "description": null,
            "title": null,
            "mds_group": "362543",
            "order": 4,
            "alias_to_url": [
              {
                "320x220": "//images.mds-proxy.test.autoru.yandex.net/get-sto/362543/f6e2bcb433891155c819f81e5ea66bdd/320x220"
              },
              {
                "orig": "//images.mds-proxy.test.autoru.yandex.net/get-sto/362543/f6e2bcb433891155c819f81e5ea66bdd/orig"
              },
              {
                "1200x900": "//images.mds-proxy.test.autoru.yandex.net/get-sto/362543/f6e2bcb433891155c819f81e5ea66bdd/1200x900"
              },
              {
                "620x290": "//images.mds-proxy.test.autoru.yandex.net/get-sto/362543/f6e2bcb433891155c819f81e5ea66bdd/620x290"
              },
              {
                "140x110": "//images.mds-proxy.test.autoru.yandex.net/get-sto/362543/f6e2bcb433891155c819f81e5ea66bdd/140x110"
              },
              {
                "280x140": "//images.mds-proxy.test.autoru.yandex.net/get-sto/362543/f6e2bcb433891155c819f81e5ea66bdd/280x140"
              }
            ]
          },
          {
            "type": null,
            "description": null,
            "title": null,
            "mds_group": "246909",
            "order": 5,
            "alias_to_url": [
              {
                "320x220": "//images.mds-proxy.test.autoru.yandex.net/get-sto/246909/b4b60195437a0e9aee8144fc9c8622fc/320x220"
              },
              {
                "orig": "//images.mds-proxy.test.autoru.yandex.net/get-sto/246909/b4b60195437a0e9aee8144fc9c8622fc/orig"
              },
              {
                "1200x900": "//images.mds-proxy.test.autoru.yandex.net/get-sto/246909/b4b60195437a0e9aee8144fc9c8622fc/1200x900"
              },
              {
                "620x290": "//images.mds-proxy.test.autoru.yandex.net/get-sto/246909/b4b60195437a0e9aee8144fc9c8622fc/620x290"
              },
              {
                "140x110": "//images.mds-proxy.test.autoru.yandex.net/get-sto/246909/b4b60195437a0e9aee8144fc9c8622fc/140x110"
              },
              {
                "280x140": "//images.mds-proxy.test.autoru.yandex.net/get-sto/246909/b4b60195437a0e9aee8144fc9c8622fc/280x140"
              }
            ]
          }
        ],
        "open_hours": {
          "open_hours": [
            {
              "from": 480,
              "to": 1260,
              "day": "Monday"
            },
            {
              "from": 480,
              "to": 1260,
              "day": "Tuesday"
            },
            {
              "from": 480,
              "to": 1260,
              "day": "Wednesday"
            },
            {
              "from": 480,
              "to": 1260,
              "day": "Thursday"
            },
            {
              "from": 480,
              "to": 1260,
              "day": "Friday"
            },
            {
              "from": 480,
              "to": 1260,
              "day": "Saturday"
            },
            {
              "from": 480,
              "to": 1260,
              "day": "Sunday"
            }
          ],
          "tz_offset": 10800
        },
        "billing": [
          {
            "code": "sto-top",
            "apply_timestamp": 1504190541216,
            "expire_timestamp": 1504276941216
          }
        ],
        "timestamp": 974915493,
        "phones": [
          {
            "number": "+7(495)500-34-34",
            "description": null
          },
          {
            "number": "+7(495)988-75-75",
            "description": null
          }
        ],
        "websites": [
          {
            "address": "www.flightauto.ru",
            "description": null
          },
          {
            "address": "www.geely-dealer.ru",
            "description": null
          },
          {
            "address": "www.suzuki-flightauto.ru",
            "description": null
          }
        ],
        "work_types": [
          {
            "id": "technical_service",
            "price_from": 1000
          },
          {
            "id": "car_electrician_repair",
            "price_from": 1000
          },
          {
            "id": "ac_service",
            "price_from": 1000
          },
          {
            "id": "car_engine_repair",
            "price_from": 1000
          },
          {
            "id": "car_tuning",
            "price_from": 1000
          },
          {
            "id": "running_gear",
            "price_from": 1000
          },
          {
            "id": "car_brake_disc",
            "price_from": 1000
          },
          {
            "id": "exhaust_systems_repair",
            "price_from": 1000
          },
          {
            "id": "transmission_repair",
            "price_from": 1000
          },
          {
            "id": "diagnostics_car",
            "price_from": 1000
          },
          {
            "id": "washing",
            "price_from": 1000
          },
          {
            "id": "tire_fitting",
            "price_from": 1000
          }
        ],
        "creation_date": 1495006741907,
        "update_date": 1504213469110,
        "rid": 21651,
        "user": {
          "id": "a_2216073",
          "email": null,
          "name": null
        },
        "geo_point": {
          "latitude": "55.649491",
          "longitude": "37.838275"
        },
        "mark": [
          "HONDA"
        ],
        "customer_service": [
          {
            "key": "wifi",
            "value": true
          },
          {
            "key": "payment_by_card",
            "value": true
          },
          {
            "key": "atm",
            "value": true
          },
          {
            "key": "coffee_lunchroom",
            "value": true
          },
          {
            "key": "lounge_zone",
            "value": true
          }
        ]
      },
      {
        "id": "sto_6373439345380525357",
        "backa_id": "1175706791",
        "client_id": "29176",
        "raw_address": "Москва, Варшавское шоссе, 26с11",
        "address_description": null,
        "full_name": "Техцентр Honda Асura",
        "short_name": null,
        "semantic_url": "tehtsentr_honda_asura",
        "description": "Ремонт и сервисное обслуживание постгарантийных легковых автомобилей  всех марок на выгодных условиях. \nЛицензионное оборудование, опытные специалисты, комфортная зона ожидания с кафе и Wi-Fi.  \nСтоимость нормо/часа - 1100 руб. \nЖдем Вас!",
        "short_description": null,
        "is_official": false,
        "is_clubbed": false,
        "relevance": 301022,
        "work_type_depends_relevance": 1983544064,
        "work_type_independs_relevance": 1512050176,
        "gallery": [
          {
            "type": null,
            "description": null,
            "title": null,
            "mds_group": "163459",
            "order": 0,
            "alias_to_url": [
              {
                "320x220": "//images.mds-proxy.test.autoru.yandex.net/get-sto/163459/5688460bb75fb89107383f592673269c/320x220"
              },
              {
                "orig": "//images.mds-proxy.test.autoru.yandex.net/get-sto/163459/5688460bb75fb89107383f592673269c/orig"
              },
              {
                "1200x900": "//images.mds-proxy.test.autoru.yandex.net/get-sto/163459/5688460bb75fb89107383f592673269c/1200x900"
              },
              {
                "620x290": "//images.mds-proxy.test.autoru.yandex.net/get-sto/163459/5688460bb75fb89107383f592673269c/620x290"
              },
              {
                "140x110": "//images.mds-proxy.test.autoru.yandex.net/get-sto/163459/5688460bb75fb89107383f592673269c/140x110"
              },
              {
                "280x140": "//images.mds-proxy.test.autoru.yandex.net/get-sto/163459/5688460bb75fb89107383f592673269c/280x140"
              }
            ]
          },
          {
            "type": null,
            "description": null,
            "title": null,
            "mds_group": "163459",
            "order": 1,
            "alias_to_url": [
              {
                "320x220": "//images.mds-proxy.test.autoru.yandex.net/get-sto/163459/3c82a97ce05f68f321acc01f65f13bd6/320x220"
              },
              {
                "orig": "//images.mds-proxy.test.autoru.yandex.net/get-sto/163459/3c82a97ce05f68f321acc01f65f13bd6/orig"
              },
              {
                "1200x900": "//images.mds-proxy.test.autoru.yandex.net/get-sto/163459/3c82a97ce05f68f321acc01f65f13bd6/1200x900"
              },
              {
                "620x290": "//images.mds-proxy.test.autoru.yandex.net/get-sto/163459/3c82a97ce05f68f321acc01f65f13bd6/620x290"
              },
              {
                "140x110": "//images.mds-proxy.test.autoru.yandex.net/get-sto/163459/3c82a97ce05f68f321acc01f65f13bd6/140x110"
              },
              {
                "280x140": "//images.mds-proxy.test.autoru.yandex.net/get-sto/163459/3c82a97ce05f68f321acc01f65f13bd6/280x140"
              }
            ]
          },
          {
            "type": null,
            "description": null,
            "title": null,
            "mds_group": "200367",
            "order": 2,
            "alias_to_url": [
              {
                "320x220": "//images.mds-proxy.test.autoru.yandex.net/get-sto/200367/12642ac36f0fa52267b9c0844a8d9cf7/320x220"
              },
              {
                "orig": "//images.mds-proxy.test.autoru.yandex.net/get-sto/200367/12642ac36f0fa52267b9c0844a8d9cf7/orig"
              },
              {
                "1200x900": "//images.mds-proxy.test.autoru.yandex.net/get-sto/200367/12642ac36f0fa52267b9c0844a8d9cf7/1200x900"
              },
              {
                "620x290": "//images.mds-proxy.test.autoru.yandex.net/get-sto/200367/12642ac36f0fa52267b9c0844a8d9cf7/620x290"
              },
              {
                "140x110": "//images.mds-proxy.test.autoru.yandex.net/get-sto/200367/12642ac36f0fa52267b9c0844a8d9cf7/140x110"
              },
              {
                "280x140": "//images.mds-proxy.test.autoru.yandex.net/get-sto/200367/12642ac36f0fa52267b9c0844a8d9cf7/280x140"
              }
            ]
          },
          {
            "type": null,
            "description": null,
            "title": null,
            "mds_group": "362543",
            "order": 3,
            "alias_to_url": [
              {
                "320x220": "//images.mds-proxy.test.autoru.yandex.net/get-sto/362543/bccfe21a37cae7c0d18dc35a1229dd9d/320x220"
              },
              {
                "orig": "//images.mds-proxy.test.autoru.yandex.net/get-sto/362543/bccfe21a37cae7c0d18dc35a1229dd9d/orig"
              },
              {
                "1200x900": "//images.mds-proxy.test.autoru.yandex.net/get-sto/362543/bccfe21a37cae7c0d18dc35a1229dd9d/1200x900"
              },
              {
                "620x290": "//images.mds-proxy.test.autoru.yandex.net/get-sto/362543/bccfe21a37cae7c0d18dc35a1229dd9d/620x290"
              },
              {
                "140x110": "//images.mds-proxy.test.autoru.yandex.net/get-sto/362543/bccfe21a37cae7c0d18dc35a1229dd9d/140x110"
              },
              {
                "280x140": "//images.mds-proxy.test.autoru.yandex.net/get-sto/362543/bccfe21a37cae7c0d18dc35a1229dd9d/280x140"
              }
            ]
          },
          {
            "type": null,
            "description": null,
            "title": null,
            "mds_group": "246909",
            "order": 4,
            "alias_to_url": [
              {
                "320x220": "//images.mds-proxy.test.autoru.yandex.net/get-sto/246909/21b957131cf91face497b168cbd5be43/320x220"
              },
              {
                "orig": "//images.mds-proxy.test.autoru.yandex.net/get-sto/246909/21b957131cf91face497b168cbd5be43/orig"
              },
              {
                "1200x900": "//images.mds-proxy.test.autoru.yandex.net/get-sto/246909/21b957131cf91face497b168cbd5be43/1200x900"
              },
              {
                "620x290": "//images.mds-proxy.test.autoru.yandex.net/get-sto/246909/21b957131cf91face497b168cbd5be43/620x290"
              },
              {
                "140x110": "//images.mds-proxy.test.autoru.yandex.net/get-sto/246909/21b957131cf91face497b168cbd5be43/140x110"
              },
              {
                "280x140": "//images.mds-proxy.test.autoru.yandex.net/get-sto/246909/21b957131cf91face497b168cbd5be43/280x140"
              }
            ]
          },
          {
            "type": null,
            "description": null,
            "title": null,
            "mds_group": "163459",
            "order": 5,
            "alias_to_url": [
              {
                "320x220": "//images.mds-proxy.test.autoru.yandex.net/get-sto/163459/e9c0e9f334f0557624de1b8d3aef0489/320x220"
              },
              {
                "orig": "//images.mds-proxy.test.autoru.yandex.net/get-sto/163459/e9c0e9f334f0557624de1b8d3aef0489/orig"
              },
              {
                "1200x900": "//images.mds-proxy.test.autoru.yandex.net/get-sto/163459/e9c0e9f334f0557624de1b8d3aef0489/1200x900"
              },
              {
                "620x290": "//images.mds-proxy.test.autoru.yandex.net/get-sto/163459/e9c0e9f334f0557624de1b8d3aef0489/620x290"
              },
              {
                "140x110": "//images.mds-proxy.test.autoru.yandex.net/get-sto/163459/e9c0e9f334f0557624de1b8d3aef0489/140x110"
              },
              {
                "280x140": "//images.mds-proxy.test.autoru.yandex.net/get-sto/163459/e9c0e9f334f0557624de1b8d3aef0489/280x140"
              }
            ]
          },
          {
            "type": null,
            "description": null,
            "title": null,
            "mds_group": "163459",
            "order": 6,
            "alias_to_url": [
              {
                "320x220": "//images.mds-proxy.test.autoru.yandex.net/get-sto/163459/81d413b489c67936e219176d4fe3545a/320x220"
              },
              {
                "orig": "//images.mds-proxy.test.autoru.yandex.net/get-sto/163459/81d413b489c67936e219176d4fe3545a/orig"
              },
              {
                "1200x900": "//images.mds-proxy.test.autoru.yandex.net/get-sto/163459/81d413b489c67936e219176d4fe3545a/1200x900"
              },
              {
                "620x290": "//images.mds-proxy.test.autoru.yandex.net/get-sto/163459/81d413b489c67936e219176d4fe3545a/620x290"
              },
              {
                "140x110": "//images.mds-proxy.test.autoru.yandex.net/get-sto/163459/81d413b489c67936e219176d4fe3545a/140x110"
              },
              {
                "280x140": "//images.mds-proxy.test.autoru.yandex.net/get-sto/163459/81d413b489c67936e219176d4fe3545a/280x140"
              }
            ]
          },
          {
            "type": null,
            "description": null,
            "title": null,
            "mds_group": "163459",
            "order": 7,
            "alias_to_url": [
              {
                "320x220": "//images.mds-proxy.test.autoru.yandex.net/get-sto/163459/ec09d0cf3bfb6afdc4646fe263ebb362/320x220"
              },
              {
                "orig": "//images.mds-proxy.test.autoru.yandex.net/get-sto/163459/ec09d0cf3bfb6afdc4646fe263ebb362/orig"
              },
              {
                "1200x900": "//images.mds-proxy.test.autoru.yandex.net/get-sto/163459/ec09d0cf3bfb6afdc4646fe263ebb362/1200x900"
              },
              {
                "620x290": "//images.mds-proxy.test.autoru.yandex.net/get-sto/163459/ec09d0cf3bfb6afdc4646fe263ebb362/620x290"
              },
              {
                "140x110": "//images.mds-proxy.test.autoru.yandex.net/get-sto/163459/ec09d0cf3bfb6afdc4646fe263ebb362/140x110"
              },
              {
                "280x140": "//images.mds-proxy.test.autoru.yandex.net/get-sto/163459/ec09d0cf3bfb6afdc4646fe263ebb362/280x140"
              }
            ]
          },
          {
            "type": null,
            "description": null,
            "title": null,
            "mds_group": "163459",
            "order": 8,
            "alias_to_url": [
              {
                "320x220": "//images.mds-proxy.test.autoru.yandex.net/get-sto/163459/55209162c4d506ba4bbe85c7180caf18/320x220"
              },
              {
                "orig": "//images.mds-proxy.test.autoru.yandex.net/get-sto/163459/55209162c4d506ba4bbe85c7180caf18/orig"
              },
              {
                "1200x900": "//images.mds-proxy.test.autoru.yandex.net/get-sto/163459/55209162c4d506ba4bbe85c7180caf18/1200x900"
              },
              {
                "620x290": "//images.mds-proxy.test.autoru.yandex.net/get-sto/163459/55209162c4d506ba4bbe85c7180caf18/620x290"
              },
              {
                "140x110": "//images.mds-proxy.test.autoru.yandex.net/get-sto/163459/55209162c4d506ba4bbe85c7180caf18/140x110"
              },
              {
                "280x140": "//images.mds-proxy.test.autoru.yandex.net/get-sto/163459/55209162c4d506ba4bbe85c7180caf18/280x140"
              }
            ]
          }
        ],
        "open_hours": {
          "open_hours": [
            {
              "from": 480,
              "to": 1260,
              "day": "Monday"
            },
            {
              "from": 480,
              "to": 1260,
              "day": "Tuesday"
            },
            {
              "from": 480,
              "to": 1260,
              "day": "Wednesday"
            },
            {
              "from": 480,
              "to": 1260,
              "day": "Thursday"
            },
            {
              "from": 480,
              "to": 1260,
              "day": "Friday"
            },
            {
              "from": 480,
              "to": 1260,
              "day": "Saturday"
            },
            {
              "from": 480,
              "to": 1260,
              "day": "Sunday"
            }
          ],
          "tz_offset": 10800
        },
        "billing": [
          {
            "code": "sto-top",
            "apply_timestamp": 1504185033714,
            "expire_timestamp": 1504271433714
          }
        ],
        "timestamp": 974915326,
        "phones": [
          {
            "number": "+7 (495) 725-32-62",
            "description": null
          },
          {
            "number": "+7 (495) 725-22-90",
            "description": null
          }
        ],
        "emails": [
          {
            "address": "service-sim.ru@yandex.ru",
            "description": null
          }
        ],
        "websites": [
          {
            "address": "http://service-sim.ru/",
            "description": "сайт"
          }
        ],
        "work_types": [
          {
            "id": "body_repair"
          },
          {
            "id": "tire_fitting"
          }
        ],
        "creation_date": 1485886115204,
        "update_date": 1504213468943,
        "rid": 213,
        "user": {
          "id": "a_22244752",
          "email": null,
          "name": null
        },
        "geo_point": {
          "latitude": "55.686655",
          "longitude": "37.621309"
        },
        "mark": [
          "HONDA",
          "HYUNDAI",
          "ACURA",
          "CHEVROLET",
          "MAZDA",
          "NISSAN",
          "KIA",
          "RENAULT",
          "OPEL"
        ],
        "metro": [
          {
            "rid": "20427",
            "name": "Нагатинская",
            "distance": 376.26361083984375
          },
          {
            "rid": "152942",
            "name": "Верхние Котлы",
            "distance": 414.59344482421875
          }
        ],
        "customer_service": [
          {
            "key": "payment_by_card",
            "value": true
          },
          {
            "key": "wifi",
            "value": true
          },
          {
            "key": "lounge_zone",
            "value": true
          },
          {
            "key": "coffee_lunchroom",
            "value": true
          },
          {
            "key": "atm",
            "value": true
          }
        ]
      }
    ],
    "query": {
      "sort": "relevance-desc"
    },
    "pager": {
      "page": 1,
      "page_size": 30,
      "total_pages": 2243,
      "total_items": 67272
    }
  }
}