{
    "meta": {
        "limit": 42,
        "offset": 2,
        "total": 739
    },
    "page_count": 18,
    "tasks": [
        {
            "id": "0c645c17-8422-4c29-9a4e-8309cf7b767c",
            "service": "support",
            "service_object_id": "109272369",
            "service_object_url": "https://api.samsara.yandex-team.ru/api/v2/tickets/109272369",
            "status": "rejected",
            "original_task": {
                "form_id": "toponym",
                "message": "Сейчас здесь находится Костромской сырзавод. ",
                "form_context": {},
                "metadata": {
                    "ip": "100.00.00.00",
                    "uid": 1000000000,
                    "uuid": "20000000000000000000000000",
                    "locale": "ru_RU",
                    "version": "1.0",
                    "client_id": "mobile_maps_android",
                    "device_id": "000000000000000000000",
                    "user_coordinate": {
                        "lat": 57.7376038,
                        "lon": 40.9804562
                    },
                    "application_version": "9.4.2"
                },
                "answer_id": "comment",
                "object_id": "56359637",
                "form_point": {
                    "lat": 57.75412880309262,
                    "lon": 40.9758072687449
                },
                "object_url": "https://n.maps.yandex.ru/#!/objects/56359637",
                "question_id": "other",
                "attached_photos": [
                    "1893389/2a00000173294871646979c78b5b352322bc"
                ],
                "form_context_id": "toponym.building",
                "support_message": "Assessor: Category: sprav\n\n"
            },
            "created_at": "2020-07-07T12:38:01Z",
            "updated_at": "2020-07-07T13:26:03.954000000Z",
            "integration": {
                "services": {
                    "support": {
                        "service_object_id": "109272369",
                        "service_object_url": "https://api.samsara.yandex-team.ru/api/v2/tickets/109272369"
                    }
                },
                "samsara_tickets_history": [],
                "tracker_tasks_history": []
            },
            "attached_photos": [
                "https://avatars.mds.yandex.net/get-maps-feedback/1893389/2a00000173294871646979c78b5b352322bc/orig"
            ],
            "history": [
                {
                    "id": 1441563,
                    "status": "rejected",
                    "created_at": "2020-07-07T13:26:03.954000000Z",
                    "message": "message",
                    "service": "support"
                },
                {
                    "id": 1439151,
                    "status": "in_progress",
                    "created_at": "2020-07-07T12:38:01Z"
                }
            ]
        }
    ]
}
